...................
----------------------------------------------------------------------
Ran 19 tests in 38.801s

OK
Name             Stmts   Miss Branch BrPart  Cover   Missing
------------------------------------------------------------
Collatz.py          34      0     16      1    98%   57->60
TestCollatz.py      83      0      0      0   100%
------------------------------------------------------------
TOTAL              117      0     16      1    99%